%YAML 1.1
%TAG !u! tag:unity3d.com,2011:
--- !u!114 &11400000
MonoBehaviour:
  m_ObjectHideFlags: 0
  m_CorrespondingSourceObject: {fileID: 0}
  m_PrefabInstance: {fileID: 0}
  m_PrefabAsset: {fileID: 0}
  m_GameObject: {fileID: 0}
  m_Enabled: 1
  m_EditorHideFlags: 0
  m_Script: {fileID: 11500000, guid: 98bd108f73248e84097a5a4926d45378, type: 3}
  m_Name: 02i
  m_EditorClassIdentifier: 
  vid: {fileID: 32900000, guid: 23f9f26ba68214a489d7d7d7f657e8ca, type: 3}
  audio: {fileID: 8300000, guid: 05ca153bc4fd62846911035a619b7e4c, type: 3}
  text: {fileID: 6686097678407549244, guid: 4c805b4e95559f4489ccb41ec89438d2, type: 3}
  infoImage: {fileID: 21300000, guid: 858e2bd5c4b15e34a9aee034b79746a4, type: 3}
  infoJap: '[i]girisu'
  infoEng: English
