%YAML 1.1
%TAG !u! tag:unity3d.com,2011:
--- !u!114 &11400000
MonoBehaviour:
  m_ObjectHideFlags: 0
  m_CorrespondingSourceObject: {fileID: 0}
  m_PrefabInstance: {fileID: 0}
  m_PrefabAsset: {fileID: 0}
  m_GameObject: {fileID: 0}
  m_Enabled: 1
  m_EditorHideFlags: 0
  m_Script: {fileID: 11500000, guid: 98bd108f73248e84097a5a4926d45378, type: 3}
  m_Name: 06ka
  m_EditorClassIdentifier: 
  vid: {fileID: 32900000, guid: 9c6e5cda429b2054488a23b5764db887, type: 3}
  audio: {fileID: 8300000, guid: 4109448d7bca4924d8894715670ce3c3, type: 3}
  text: {fileID: 6686097678407549244, guid: 591d6d8d4692e50458d12b80723a3d53, type: 3}
  infoImage: {fileID: 21300000, guid: 269bb6aabe3e8af4a9511dc8b7664235, type: 3}
  infoJap: '[ka]mera'
  infoEng: Camera
