%YAML 1.1
%TAG !u! tag:unity3d.com,2011:
--- !u!114 &11400000
MonoBehaviour:
  m_ObjectHideFlags: 0
  m_CorrespondingSourceObject: {fileID: 0}
  m_PrefabInstance: {fileID: 0}
  m_PrefabAsset: {fileID: 0}
  m_GameObject: {fileID: 0}
  m_Enabled: 1
  m_EditorHideFlags: 0
  m_Script: {fileID: 11500000, guid: 98bd108f73248e84097a5a4926d45378, type: 3}
  m_Name: 07ki
  m_EditorClassIdentifier: 
  vid: {fileID: 32900000, guid: 3b02e8f08cf7edc43ae80985efadaf16, type: 3}
  audio: {fileID: 8300000, guid: fd81e9bd84b484541a1cf1e6e1df57a7, type: 3}
  text: {fileID: 6686097678407549244, guid: e9a1d97e187bf1343bb1a68db6be6d7d, type: 3}
  infoImage: {fileID: 21300000, guid: dea26e2f6f56aa84b951f8ff2860e405, type: 3}
  infoJap: uisu[ki]i
  infoEng: Whiskey
