%YAML 1.1
%TAG !u! tag:unity3d.com,2011:
--- !u!114 &11400000
MonoBehaviour:
  m_ObjectHideFlags: 0
  m_CorrespondingSourceObject: {fileID: 0}
  m_PrefabInstance: {fileID: 0}
  m_PrefabAsset: {fileID: 0}
  m_GameObject: {fileID: 0}
  m_Enabled: 1
  m_EditorHideFlags: 0
  m_Script: {fileID: 11500000, guid: 98bd108f73248e84097a5a4926d45378, type: 3}
  m_Name: 09ke
  m_EditorClassIdentifier: 
  vid: {fileID: 32900000, guid: e37be871ac95fea4e8e4f74c69f1af27, type: 3}
  audio: {fileID: 8300000, guid: df761cded346be34d82244609c9085e2, type: 3}
  text: {fileID: 6686097678407549244, guid: 5d0da7cd648d1b3498fe687c8e8911ab, type: 3}
  infoImage: {fileID: 21300000, guid: 31d70ef06b49e534d83af8389a2f1e1a, type: 3}
  infoJap: '[ke]eki'
  infoEng: Cake
