%YAML 1.1
%TAG !u! tag:unity3d.com,2011:
--- !u!114 &11400000
MonoBehaviour:
  m_ObjectHideFlags: 0
  m_CorrespondingSourceObject: {fileID: 0}
  m_PrefabInstance: {fileID: 0}
  m_PrefabAsset: {fileID: 0}
  m_GameObject: {fileID: 0}
  m_Enabled: 1
  m_EditorHideFlags: 0
  m_Script: {fileID: 11500000, guid: 98bd108f73248e84097a5a4926d45378, type: 3}
  m_Name: 24ne
  m_EditorClassIdentifier: 
  vid: {fileID: 32900000, guid: 8c670486604fe5f4ba1a25bc39effe85, type: 3}
  audio: {fileID: 8300000, guid: 1a3a619d6e0337a479d73359f6decbe7, type: 3}
  text: {fileID: 6686097678407549244, guid: 4db7be42cef63e54d93e4fa44a028fad, type: 3}
  infoImage: {fileID: 21300000, guid: 91feabb3a913ff84690f89ab5ef2f2b4, type: 3}
  infoJap: '[ne]kutai'
  infoEng: Necktie
