%YAML 1.1
%TAG !u! tag:unity3d.com,2011:
--- !u!114 &11400000
MonoBehaviour:
  m_ObjectHideFlags: 0
  m_CorrespondingSourceObject: {fileID: 0}
  m_PrefabInstance: {fileID: 0}
  m_PrefabAsset: {fileID: 0}
  m_GameObject: {fileID: 0}
  m_Enabled: 1
  m_EditorHideFlags: 0
  m_Script: {fileID: 11500000, guid: 98bd108f73248e84097a5a4926d45378, type: 3}
  m_Name: 25no
  m_EditorClassIdentifier: 
  vid: {fileID: 32900000, guid: dde940633b5c1fb488e0e416d7228057, type: 3}
  audio: {fileID: 8300000, guid: e914def20dbd4fd44a4a2583fd8137e2, type: 3}
  text: {fileID: 6686097678407549244, guid: f7d6de3372ec6874eb8391593da7e794, type: 3}
  infoImage: {fileID: 21300000, guid: 34707fd69173cfa48919fccc2e229ccb, type: 3}
  infoJap: '[no]oto'
  infoEng: Notebook
