%YAML 1.1
%TAG !u! tag:unity3d.com,2011:
--- !u!114 &11400000
MonoBehaviour:
  m_ObjectHideFlags: 0
  m_CorrespondingSourceObject: {fileID: 0}
  m_PrefabInstance: {fileID: 0}
  m_PrefabAsset: {fileID: 0}
  m_GameObject: {fileID: 0}
  m_Enabled: 1
  m_EditorHideFlags: 0
  m_Script: {fileID: 11500000, guid: 98bd108f73248e84097a5a4926d45378, type: 3}
  m_Name: 33mu
  m_EditorClassIdentifier: 
  vid: {fileID: 32900000, guid: df7c6ca798bf308478791e7dc08cf4fa, type: 3}
  audio: {fileID: 8300000, guid: b684d2712720f1147850213f0ff749e0, type: 3}
  text: {fileID: 6686097678407549244, guid: 0877feb77aee00c43a8cc33289e1784d, type: 3}
  infoImage: {fileID: 21300000, guid: 8d1be7d8a4f280745b3611926cb351f9, type: 3}
  infoJap: ja[mu]
  infoEng: Jam
