%YAML 1.1
%TAG !u! tag:unity3d.com,2011:
--- !u!114 &11400000
MonoBehaviour:
  m_ObjectHideFlags: 0
  m_CorrespondingSourceObject: {fileID: 0}
  m_PrefabInstance: {fileID: 0}
  m_PrefabAsset: {fileID: 0}
  m_GameObject: {fileID: 0}
  m_Enabled: 1
  m_EditorHideFlags: 0
  m_Script: {fileID: 11500000, guid: 98bd108f73248e84097a5a4926d45378, type: 3}
  m_Name: 37yu
  m_EditorClassIdentifier: 
  vid: {fileID: 32900000, guid: 88ff53ab4a074ec4f8d7166b54615fdb, type: 3}
  audio: {fileID: 8300000, guid: 6b2775d426c34b946b8f68c5e5c06387, type: 3}
  text: {fileID: 6686097678407549244, guid: 4846b2be7e329fc40a8d29facb7c60c8, type: 3}
  infoImage: {fileID: 21300000, guid: 2ac2f0a4100601448b7b61022c9ec852, type: 3}
  infoJap: '[yu]uro'
  infoEng: Euro
