%YAML 1.1
%TAG !u! tag:unity3d.com,2011:
--- !u!114 &11400000
MonoBehaviour:
  m_ObjectHideFlags: 0
  m_CorrespondingSourceObject: {fileID: 0}
  m_PrefabInstance: {fileID: 0}
  m_PrefabAsset: {fileID: 0}
  m_GameObject: {fileID: 0}
  m_Enabled: 1
  m_EditorHideFlags: 0
  m_Script: {fileID: 11500000, guid: 98bd108f73248e84097a5a4926d45378, type: 3}
  m_Name: 43ro
  m_EditorClassIdentifier: 
  vid: {fileID: 32900000, guid: 26862c0a62a71fc4da5da75ffbff3b73, type: 3}
  audio: {fileID: 8300000, guid: aa2527bc51a797343adb2260f81aa3eb, type: 3}
  text: {fileID: 6686097678407549244, guid: c71b46910ba42154a9dbea236c8cb73b, type: 3}
  infoImage: {fileID: 21300000, guid: 40f1ed8003091e0439881bd2773e5e1a, type: 3}
  infoJap: me[ro]n
  infoEng: Melon
